{
    "defaultSeverity": "warning",
    "extends": [
        "tslint:recommended"
    ],
    "linterOptions": {
        "exclude": [
            "node_modules/**",
            "src/assets/json/*.json"
        ]
    },
    "rules": {
        "quotemark": [
            true,
            "single"
        ],
        "indent": [
            true,
            "spaces",
            2
        ],
        "interface-name": false,
        "ordered-imports": false,
        "object-literal-sort-keys": false,
        "no-consecutive-blank-lines": false,
        "semicolon": {
            "options": [
                "always"
            ]
        },
        "one-variable-per-declaration": false,
        "member-access": false,
        "no-console": false,
        "no-bitwise": false,
        "no-empty": false,
        "no-string-literal": false,
        "max-classes-per-file": false,
        "max-line-length": [
            false
        ]
    }
}